8 Ingeniería De Características Con recipes – Modelado Ordenado con R
…
lm_wflow <- 
  workflow() %>% 
  add_model(lm_model) %>% 
  add_recipe(ames_rec)

lm_fit <- fit(lm_wflow, ames_train)

El método tidy() se puede volver a llamar junto con el identificador id que especificamos para obtener nuestros resultados al aplicar step_other():

estimated_recipe <- 
  lm_fit %>% 
  extract_recipe(estimated = TRUE)

tidy(estimated_recipe, id = "my_id")
## # A tibble: 22 × 3
##   terms        retained           id   
##   <chr>        <chr>              <chr>
## 1 Neighborhood North_Ames         my_id
## 2 Neighborhood College_Creek      my_id
## 3 Neighborhood Old_Town           my_id
## 4 Neighborhood Edwards            my_id
## 5 Neighborhood Somerset           my_id
## 6 Neighborhood Northridge_Heights my_id
## # ℹ 16 more rows

Los resultados de tidy() que vemos aquí al usar step_other() muestran qué niveles de factor se retuvieron, es decir, no se agregaron a la nueva categoría “otros”.

El método tidy() también se puede llamar con el identificador number, si sabemos qué paso de la receta necesitamos:

tidy(estimated_recipe, number = 2)
## # A tibble: 22 × 3
##   terms        retained           id   
##   <chr>        <chr>              <chr>
## 1 Neighborhood North_Ames         my_id
## 2 Neighborhood College_Creek      my_id
## 3 Neighborhood Old_Town           my_id
## 4 Neighborhood Edwards            my_id
## 5 Neighborhood Somerset           my_id
## 6 Neighborhood Northridge_Heights my_id
## # ℹ 16 more rows
…
