9 Juzgar La Eficacia Del Modelo – Modelado Ordenado con R
…
En el resto de este capítulo, discutiremos enfoques generales para evaluar modelos mediante validación empírica. Estos enfoques se agrupan según la naturaleza de los datos de resultados: puramente numéricos, clases binarias y tres o más niveles de clase.

9.2 Métricas De Regresión

Recuerde de Sección 6.3 que las funciones de predicción de tidymodels producen tibbles con columnas para los valores predichos. Estas columnas tienen nombres consistentes y las funciones en el paquete yardstick que producen métricas de rendimiento tienen interfaces consistentes. Las funciones están basadas en marcos de datos, a diferencia de vectores, con la sintaxis general de:

function(data, truth, ...)

donde data es un marco de datos o tibble y truth es la columna con los valores de resultados observados. Las elipses u otros argumentos se utilizan para especificar las columnas que contienen las predicciones.

Para ilustrar, tomemos el modelo de Sección 8.8. Este modelo lm_wflow_fit combina un modelo de regresión lineal con un conjunto de predictores complementado con una interacción y funciones spline para longitud y latitud. Fue creado a partir de un conjunto de entrenamiento (llamado ames_train). Aunque no recomendamos utilizar el conjunto de pruebas en este punto del proceso de modelado, se utilizará aquí para ilustrar la funcionalidad y la sintaxis. El marco de datos ames_test consta de las propiedades 588. Para empezar, hagamos predicciones:

ames_test_res <- predict(lm_fit, new_data = ames_test %>% select(-Sale_Price))
ames_test_res
## # A tibble: 588 × 1
##   .pred
##   <dbl>
## 1  5.07
## 2  5.31
## 3  5.28
## 4  5.33
## 5  5.30
## 6  5.24
## # ℹ 582 more rows

El resultado numérico previsto por el modelo de regresión se denomina .pred. Hagamos coincidir los valores predichos con sus correspondientes valores de resultado observados:

ames_test_res <- bind_cols(ames_test_res, ames_test %>% select(Sale_Price))
ames_test_res
## # A tibble: 588 × 2
##   .pred Sale_Price
##   <dbl>      <dbl>
## 1  5.07       5.02
## 2  5.31       5.39
## 3  5.28       5.28
## 4  5.33       5.28
## 5  5.30       5.28
## 6  5.24       5.26
## # ℹ 582 more rows
…
Este formato de datos ordenado apila las métricas verticalmente. Las métricas del error cuadrático medio y del error absoluto medio están en la escala del resultado (por lo tanto, log10(Sale_Price) para nuestro ejemplo) y miden la diferencia entre los valores previstos y observados. El valor de \(R^2\) mide la correlación al cuadrado entre los valores previstos y observados, por lo que los valores más cercanos a uno son mejores.

El paquete yardstick no contiene una función para \(R^2\) ajustado. Esta modificación del coeficiente de determinación se utiliza comúnmente cuando los mismos datos utilizados para ajustar el modelo se utilizan para evaluar el modelo. Esta métrica no es totalmente compatible con tidymodels porque siempre es un mejor enfoque para calcular el rendimiento en un conjunto de datos separado que el utilizado para ajustar el modelo.

9.3 Métricas De Clasificación Binaria

Para ilustrar otras formas de medir el rendimiento del modelo, cambiaremos a un ejemplo diferente. El paquete modeldata (otro de los paquetes tidymodels) contiene predicciones de ejemplo de un conjunto de datos de prueba con dos clases (“Class1” y “Class2”):

data(two_class_example)
tibble(two_class_example)
## # A tibble: 500 × 4
##   truth   Class1   Class2 predicted
##   <fct>    <dbl>    <dbl> <fct>    
## 1 Class2 0.00359 0.996    Class2   
## 2 Class1 0.679   0.321    Class1   
## 3 Class2 0.111   0.889    Class2   
## 4 Class1 0.735   0.265    Class1   
## 5 Class2 0.0162  0.984    Class2   
## 6 Class1 0.999   0.000725 Class1   
## # ℹ 494 more rows
…
f_meas(two_class_example, truth, predicted, event_level = "second")
## # A tibble: 1 × 3
##   .metric .estimator .estimate
##   <chr>   <chr>          <dbl>
## 1 f_meas  binary         0.826

En este resultado, el valor .estimator de “binario” indica que se utilizará la fórmula estándar para clases binarias.

Existen numerosas métricas de clasificación que utilizan las probabilidades predichas como entradas en lugar de las predicciones de clase estrictas. Por ejemplo, la curva de características operativas del receptor (ROC) calcula la sensibilidad y la especificidad sobre un continuo de diferentes umbrales de eventos. La columna de clase prevista no se utiliza. Hay dos funciones yardstick para este método: roc_curve() calcula los puntos de datos que forman la curva ROC y roc_auc() calcula el área bajo la curva.

Las interfaces para estos tipos de funciones métricas utilizan el marcador de posición del argumento ... para pasar la columna de probabilidad de clase apropiada. Para problemas de dos clases, la columna de probabilidad del evento de interés se pasa a la función:

two_class_curve <- roc_curve(two_class_example, truth, Class1)
two_class_curve
## # A tibble: 502 × 3
##   .threshold specificity sensitivity
##        <dbl>       <dbl>       <dbl>
## 1 -Inf           0                 1
## 2    1.79e-7     0                 1
## 3    4.50e-6     0.00413           1
## 4    5.81e-6     0.00826           1
## 5    5.92e-6     0.0124            1
## 6    1.22e-5     0.0165            1
## # ℹ 496 more rows
…
Figura 9.3: Ejemplo de curva ROC

Si la curva estuviera cerca de la línea diagonal, entonces las predicciones del modelo no serían mejores que las conjeturas aleatorias. Dado que la curva está arriba en la esquina superior izquierda, vemos que nuestro modelo funciona bien en diferentes umbrales.

Hay otras funciones que utilizan estimaciones de probabilidad, incluidas gain_curve(), lift_curve() y pr_curve().

9.4 Métricas De Clasificación Multiclase

¿Qué pasa con los datos con tres o más clases? Para demostrarlo, exploremos un conjunto de datos de ejemplo diferente que tiene cuatro clases:

data(hpc_cv)
tibble(hpc_cv)
## # A tibble: 3,467 × 7
##   obs   pred     VF      F       M          L Resample
##   <fct> <fct> <dbl>  <dbl>   <dbl>      <dbl> <chr>   
## 1 VF    VF    0.914 0.0779 0.00848 0.0000199  Fold01  
## 2 VF    VF    0.938 0.0571 0.00482 0.0000101  Fold01  
## 3 VF    VF    0.947 0.0495 0.00316 0.00000500 Fold01  
## 4 VF    VF    0.929 0.0653 0.00579 0.0000156  Fold01  
## 5 VF    VF    0.942 0.0543 0.00381 0.00000729 Fold01  
## 6 VF    VF    0.951 0.0462 0.00272 0.00000384 Fold01  
## # ℹ 3,461 more rows
…
El promedio macroponderado también está disponible como opción para aplicar esta métrica a un resultado multiclase:

roc_auc(hpc_cv, obs, VF, F, M, L, estimator = "macro_weighted")
## # A tibble: 1 × 3
##   .metric .estimator     .estimate
##   <chr>   <chr>              <dbl>
## 1 roc_auc macro_weighted     0.868

Finalmente, todas estas métricas de rendimiento se pueden calcular utilizando agrupaciones dplyr. Recuerde que estos datos tienen una columna para los grupos de remuestreo. Aún no hemos analizado el remuestreo en detalle, pero observe cómo podemos pasar un marco de datos agrupados a la función métrica para calcular las métricas para cada grupo:

hpc_cv %>% 
  group_by(Resample) %>% 
  accuracy(obs, pred)
## # A tibble: 10 × 4
##   Resample .metric  .estimator .estimate
##   <chr>    <chr>    <chr>          <dbl>
## 1 Fold01   accuracy multiclass     0.726
## 2 Fold02   accuracy multiclass     0.712
## 3 Fold03   accuracy multiclass     0.758
## 4 Fold04   accuracy multiclass     0.712
## 5 Fold05   accuracy multiclass     0.712
## 6 Fold06   accuracy multiclass     0.697
## # ℹ 4 more rows
…
