10 Remuestrear Para Evaluar El Rendimiento – Modelado Ordenado con R
…
Figura 10.3: Uso de datos de validación cruzada V-fold

Cuando V = 3, los conjuntos de análisis son 2/3 del conjunto de entrenamiento y cada conjunto de evaluación es un 1/3 distinto. La estimación final del remuestreo del rendimiento promedia cada una de las V réplicas.

Usar V = 3 es una buena opción para ilustrar la validación cruzada, pero en la práctica es una mala opción porque es demasiado baja para generar estimaciones confiables. En la práctica, los valores de V suelen ser 5 o 10; Generalmente preferimos la validación cruzada 10 veces como valor predeterminado porque es lo suficientemente grande para obtener buenos resultados en la mayoría de las situaciones.

¿Cuáles son los efectos de cambiar V? Los valores más grandes dan como resultado estimaciones de remuestreo con un sesgo pequeño pero una varianza sustancial. Los valores más pequeños de V tienen un sesgo grande pero una varianza baja. Preferimos 10 veces, ya que la replicación reduce el ruido, pero no el sesgo.3

La entrada principal es el marco de datos del conjunto de entrenamiento, así como el número de pliegues (por defecto, 10):

set.seed(1001)
ames_folds <- vfold_cv(ames_train, v = 10)
ames_folds
## #  10-fold cross-validation 
## # A tibble: 10 × 2
##   splits             id    
##   <list>             <chr> 
## 1 <split [2107/235]> Fold01
## 2 <split [2107/235]> Fold02
## 3 <split [2108/234]> Fold03
## 4 <split [2108/234]> Fold04
## 5 <split [2108/234]> Fold05
## 6 <split [2108/234]> Fold06
## # ℹ 4 more rows
…
Figura 10.4: Relación entre la varianza relativa en las estimaciones de desempeño versus el número de repeticiones de validación cruzada

Un mayor número de réplicas tiende a tener menos impacto en el error estándar. Sin embargo, si el valor de referencia de \(\sigma\) es imprácticamente grande, los rendimientos decrecientes de la replicación aún pueden valer los costos computacionales adicionales.

Para crear repeticiones, invoque vfold_cv() con un argumento adicional repeats:

vfold_cv(ames_train, v = 10, repeats = 5)
## #  10-fold cross-validation repeated 5 times 
## # A tibble: 50 × 3
##   splits             id      id2   
##   <list>             <chr>   <chr> 
## 1 <split [2107/235]> Repeat1 Fold01
## 2 <split [2107/235]> Repeat1 Fold02
## 3 <split [2108/234]> Repeat1 Fold03
## 4 <split [2108/234]> Repeat1 Fold04
## 5 <split [2108/234]> Repeat1 Fold05
## 6 <split [2108/234]> Repeat1 Fold06
## # ℹ 44 more rows

Validación cruzada de dejar uno fuera

Una variación de la validación cruzada es la validación cruzada de dejar uno fuera (LOO). Si hay \(n\) muestras de conjuntos de entrenamiento, \(n\) modelos se ajustan usando \(n-1\) filas del conjunto de entrenamiento. Cada modelo predice el único punto de datos excluido. Al final del remuestreo, las predicciones \(n\) se combinan para producir una única estadística de rendimiento.

Los métodos de dejar uno fuera son deficientes en comparación con casi cualquier otro método. Para cualquier cosa que no sea una muestra patológicamente pequeña, LOO es computacionalmente excesivo y puede que no tenga buenas propiedades estadísticas. Aunque el paquete rsample contiene una función loo_cv(), estos objetos generalmente no están integrados en los marcos más amplios de tidymodels.

Validación cruzada de Monte Carlo

Otra variante de la validación cruzada V es la validación cruzada de Monte Carlo (MCCV, Xu y Liang (2001)). Al igual que la validación cruzada V veces, asigna una proporción fija de datos a los conjuntos de evaluación. La diferencia entre MCCV y la validación cruzada regular es que, para MCCV, esta proporción de datos se selecciona aleatoriamente cada vez. Esto da como resultado conjuntos de evaluación que no son mutuamente excluyentes. Para crear estos objetos de remuestreo:

mc_cv(ames_train, prop = 9/10, times = 20)
## # Monte Carlo cross-validation (0.9/0.1) with 20 resamples  
## # A tibble: 20 × 2
##   splits             id        
##   <list>             <chr>     
## 1 <split [2107/235]> Resample01
## 2 <split [2107/235]> Resample02
## 3 <split [2107/235]> Resample03
## 4 <split [2107/235]> Resample04
## 5 <split [2107/235]> Resample05
## 6 <split [2107/235]> Resample06
## # ℹ 14 more rows
…
save_pred: Una lógica para guardar las predicciones del conjunto de evaluación.

Para nuestro ejemplo, guardemos las predicciones para visualizar el ajuste y los residuos del modelo:

keep_pred <- control_resamples(save_pred = TRUE, save_workflow = TRUE)

set.seed(1003)
rf_res <- 
  rf_wflow %>% 
  fit_resamples(resamples = ames_folds, control = keep_pred)
rf_res
## # Resampling results
## # 10-fold cross-validation 
## # A tibble: 10 × 5
##   splits             id     .metrics         .notes           .predictions      
##   <list>             <chr>  <list>           <list>           <list>            
## 1 <split [2107/235]> Fold01 <tibble [2 × 4]> <tibble [0 × 3]> <tibble [235 × 4]>
## 2 <split [2107/235]> Fold02 <tibble [2 × 4]> <tibble [0 × 3]> <tibble [235 × 4]>
## 3 <split [2108/234]> Fold03 <tibble [2 × 4]> <tibble [0 × 3]> <tibble [234 × 4]>
## 4 <split [2108/234]> Fold04 <tibble [2 × 4]> <tibble [0 × 3]> <tibble [234 × 4]>
## 5 <split [2108/234]> Fold05 <tibble [2 × 4]> <tibble [0 × 3]> <tibble [234 × 4]>
## 6 <split [2108/234]> Fold06 <tibble [2 × 4]> <tibble [0 × 3]> <tibble [234 × 4]>
## # ℹ 4 more rows
…
Estas son las estimaciones de remuestreo promediadas sobre las réplicas individuales. Para obtener las métricas para cada remuestreo, use la opción summarize = FALSE.

¡Observe cuánto más realistas son las estimaciones de rendimiento que las estimaciones de resustitución de Sección 10.1!

Para obtener las predicciones del conjunto de evaluación:

assess_res <- collect_predictions(rf_res)
assess_res
## # A tibble: 2,342 × 5
##   .pred id      .row Sale_Price .config             
##   <dbl> <chr>  <int>      <dbl> <chr>               
## 1  5.10 Fold01    10       5.09 Preprocessor1_Model1
## 2  4.92 Fold01    27       4.90 Preprocessor1_Model1
## 3  5.21 Fold01    47       5.08 Preprocessor1_Model1
## 4  5.13 Fold01    52       5.10 Preprocessor1_Model1
## 5  5.13 Fold01    59       5.10 Preprocessor1_Model1
## 6  5.13 Fold01    63       5.11 Preprocessor1_Model1
## # ℹ 2,336 more rows
…
# Pruébelo usando:
# get_model(lm_fit)

Ahora apliquemos esta función a los diez ajustes remuestreados. Los resultados de la función de extracción se envuelven en un objeto de lista y se devuelven en un tibble:

ctrl <- control_resamples(extract = get_model)

lm_res <- lm_wflow %>%  fit_resamples(resamples = ames_folds, control = ctrl)
lm_res
## # Resampling results
## # 10-fold cross-validation 
## # A tibble: 10 × 5
##   splits             id     .metrics         .notes           .extracts       
##   <list>             <chr>  <list>           <list>           <list>          
## 1 <split [2107/235]> Fold01 <tibble [2 × 4]> <tibble [0 × 3]> <tibble [1 × 2]>
## 2 <split [2107/235]> Fold02 <tibble [2 × 4]> <tibble [0 × 3]> <tibble [1 × 2]>
## 3 <split [2108/234]> Fold03 <tibble [2 × 4]> <tibble [0 × 3]> <tibble [1 × 2]>
## 4 <split [2108/234]> Fold04 <tibble [2 × 4]> <tibble [0 × 3]> <tibble [1 × 2]>
## 5 <split [2108/234]> Fold05 <tibble [2 × 4]> <tibble [0 × 3]> <tibble [1 × 2]>
## 6 <split [2108/234]> Fold06 <tibble [2 × 4]> <tibble [0 × 3]> <tibble [1 × 2]>
## # ℹ 4 more rows

Ahora hay una columna .extracts con tibbles anidados. ¿Qué contienen estos? Averigüemos subconjuntos.

lm_res$.extracts[[1]]
## # A tibble: 1 × 2
##   .extracts         .config             
##   <list>            <chr>               
## 1 <tibble [73 × 5]> Preprocessor1_Model1

# Para obtener los resultados
lm_res$.extracts[[1]][[1]]
## [[1]]
## # A tibble: 73 × 5
##   term                        estimate  std.error statistic   p.value
##   <chr>                          <dbl>      <dbl>     <dbl>     <dbl>
## 1 (Intercept)                 1.48     0.320         4.62   4.11e-  6
## 2 Gr_Liv_Area                 0.000158 0.00000476   33.2    9.72e-194
## 3 Year_Built                  0.00180  0.000149     12.1    1.57e- 32
## 4 Neighborhood_College_Creek -0.00163  0.0373       -0.0438 9.65e-  1
## 5 Neighborhood_Old_Town      -0.0757   0.0138       -5.47   4.92e-  8
## 6 Neighborhood_Edwards       -0.109    0.0310       -3.53   4.21e-  4
## # ℹ 67 more rows

Esto podría parecer un método complicado para guardar los resultados del modelo. Sin embargo, extract es flexible y no supone que el usuario solo guardará un tibble por remuestreo. Por ejemplo, el método tidy() podría ejecutarse tanto en la receta como en el modelo. En este caso, se devolverá una lista de dos tibbles.

Para nuestro ejemplo más simple, todos los resultados se pueden aplanar y recopilar usando:

all_coef <- map_dfr(lm_res$.extracts, ~ .x[[1]][[1]])
# Muestre las réplicas de un único predictor:
filter(all_coef, term == "Year_Built")
## # A tibble: 10 × 5
##   term       estimate std.error statistic  p.value
##   <chr>         <dbl>     <dbl>     <dbl>    <dbl>
## 1 Year_Built  0.00180  0.000149      12.1 1.57e-32
## 2 Year_Built  0.00180  0.000151      12.0 6.45e-32
## 3 Year_Built  0.00185  0.000150      12.3 1.00e-33
## 4 Year_Built  0.00183  0.000147      12.5 1.90e-34
## 5 Year_Built  0.00184  0.000150      12.2 2.47e-33
## 6 Year_Built  0.00180  0.000150      12.0 3.35e-32
## # ℹ 4 more rows
…
