17 Codificación De Datos Categóricos – Modelado Ordenado con R
…
Como se detalla en Sección 16.4, podemos preparar, prep(), nuestra receta para ajustar o estimar parámetros para las transformaciones de preprocesamiento utilizando datos de entrenamiento. Luego podemos tidy() esta receta preparada para ver los resultados:

glm_estimates <-
  prep(ames_glm) %>%
  tidy(number = 2)

glm_estimates
## # A tibble: 29 × 4
##   level              value terms        id               
##   <chr>              <dbl> <chr>        <chr>            
## 1 North_Ames          5.15 Neighborhood lencode_glm_ZsXdy
## 2 College_Creek       5.29 Neighborhood lencode_glm_ZsXdy
## 3 Old_Town            5.07 Neighborhood lencode_glm_ZsXdy
## 4 Edwards             5.09 Neighborhood lencode_glm_ZsXdy
## 5 Somerset            5.35 Neighborhood lencode_glm_ZsXdy
## 6 Northridge_Heights  5.49 Neighborhood lencode_glm_ZsXdy
## # ℹ 23 more rows
…
Vamos a prep() y tidy() esta receta para ver los resultados:

mixed_estimates <-
  prep(ames_mixed) %>%
  tidy(number = 2)

mixed_estimates
## # A tibble: 29 × 4
##   level              value terms        id                 
##   <chr>              <dbl> <chr>        <chr>              
## 1 North_Ames          5.15 Neighborhood lencode_mixed_SC9hi
## 2 College_Creek       5.29 Neighborhood lencode_mixed_SC9hi
## 3 Old_Town            5.07 Neighborhood lencode_mixed_SC9hi
## 4 Edwards             5.10 Neighborhood lencode_mixed_SC9hi
## 5 Somerset            5.35 Neighborhood lencode_mixed_SC9hi
## 6 Northridge_Heights  5.49 Neighborhood lencode_mixed_SC9hi
## # ℹ 23 more rows
…
Observe en Figura 17.2 que la mayoría de las estimaciones de los efectos de vecindad son aproximadamente las mismas cuando comparamos la agrupación con la no agrupación. Sin embargo, los barrios con menos viviendas se han visto arrastrados (ya sea hacia arriba o hacia abajo) hacia el efecto medio. Cuando utilizamos la agrupación, reducimos las estimaciones del efecto hacia la media porque no tenemos tanta evidencia sobre el precio en esos vecindarios.

17.4 Hashing De Características

Las variables ficticias tradicionales, como se describe en Sección 8.4.1, requieren que se conozcan todas las categorías posibles para crear un conjunto completo de características numéricas. Los métodos de hash de funciones (Weinberger et al. 2009) también crean variables ficticias, pero solo consideran el valor de la categoría para asignarla a un grupo predefinido de variables ficticias. Miremos nuevamente los valores de Neighborhood en Ames y usemos la función rlang::hash() para entender más:

library(rlang)

ames_hashed <-
  ames_train %>%
  mutate(Hash = map_chr(Neighborhood, hash))

ames_hashed %>%
  select(Neighborhood, Hash)
## # A tibble: 2,342 × 2
##   Neighborhood    Hash                            
##   <fct>           <chr>                           
## 1 North_Ames      076543f71313e522efe157944169d919
## 2 North_Ames      076543f71313e522efe157944169d919
## 3 Briardale       b598bec306983e3e68a3118952df8cf0
## 4 Briardale       b598bec306983e3e68a3118952df8cf0
## 5 Northpark_Villa 6af95b5db968bf393e78188a81e0e1e4
## 6 Northpark_Villa 6af95b5db968bf393e78188a81e0e1e4
## # ℹ 2,336 more rows

Si ingresamos Briardale a esta función hash, siempre obtendremos el mismo resultado. En este caso, las vecindades se denominan “claves”, mientras que las salidas son “hashes”.

Una función hash toma una entrada de tamaño variable y la asigna a una salida de tamaño fijo. Las funciones hash se utilizan comúnmente en criptografía y bases de datos.

La función rlang::hash() genera un hash de 128 bits, lo que significa que hay 2^128 valores hash posibles. Esto es excelente para algunas aplicaciones, pero no ayuda con el hash de funciones de variables de alta cardinalidad (variables con muchos niveles). En el hash de características, el número de hashes posibles es un hiperparámetro y lo establece el desarrollador del modelo calculando el módulo de los hashes enteros. Podemos obtener dieciséis valores hash posibles usando Hash %% 16:

ames_hashed %>%
  ## primero haga un hash más pequeño para números enteros que R pueda manejar
  mutate(Hash = strtoi(substr(Hash, 26, 32), base = 16L),  
         ## ahora toma el módulo
         Hash = Hash %% 16) %>%
  select(Neighborhood, Hash)
## # A tibble: 2,342 × 2
##   Neighborhood     Hash
##   <fct>           <dbl>
## 1 North_Ames          9
## 2 North_Ames          9
## 3 Briardale           0
## 4 Briardale           0
## 5 Northpark_Villa     4
## 6 Northpark_Villa     4
## # ℹ 2,336 more rows
…
