20 Conjuntos De Modelos – Modelado Ordenado con R
…
El valor de penalización asociado con el RMSE más pequeño fue 0.074. Imprimir el objeto muestra los detalles del modelo de metaaprendizaje:

ens
## ── A stacked ensemble model ─────────────────────────────────────
## 
## 
## Out of 22 possible candidate members, the ensemble retained 7.
## 
## Penalty: 0.0738619982207936.
## 
## Mixture: 1.
## 
## 
## The 7 highest weighted members are:
## # A tibble: 7 × 3
##   member                    type          weight
##   <chr>                     <chr>          <dbl>
## 1 boosting_1_04             boost_tree   0.760  
## 2 neural_network_1_12       mlp          0.119  
## 3 Cubist_1_25               cubist_rules 0.0693 
## 4 neural_network_1_04       mlp          0.0471 
## 5 full_quad_linear_reg_1_16 linear_reg   0.0149 
## 6 neural_network_1_17       mlp          0.00708
## # ℹ 1 more row
## 
## Members have not yet been fitted with `fit_members()`.
…
